{
  "description": "EMR-AWS-Linux",
  "builders": [
      {
          "type": "amazon-ebs",
          "ami_name": "encrypted-ami-{{user `packer_build_number`}}",
          "instance_type": "{{user `instance_type`}}",
          "region": "{{user `region`}}",
          "vpc_id": "{{user `vpc_id`}}",
          "subnet_id": "{{user `subnet_id`}}",
          "ami_virtualization_type": "hvm",
          "source_ami": "{{user `source_ami`}}",
          "kms_key_id": "{{user `kms_key_id`}}",
          "ssh_username": "{{user `ssh_username`}}",
          "associate_public_ip_address": true,
          "encrypt_boot": true,
          "ami_block_device_mappings": [
              {
                  "device_name": "{{user `device_name`}}",
                  "volume_type": "{{user `volume_type`}}",
                  "volume_size": 8,
                  "encrypted": true,
                  "delete_on_termination": true
              }
          ],
          "communicator": "ssh",
          "ssh_pty": true
      }
  ]
}
